running develop
running egg_info
writing play_with_turtle.egg-info/PKG-INFO
writing dependency_links to play_with_turtle.egg-info/dependency_links.txt
writing entry points to play_with_turtle.egg-info/entry_points.txt
writing requirements to play_with_turtle.egg-info/requires.txt
writing top-level names to play_with_turtle.egg-info/top_level.txt
reading manifest file 'play_with_turtle.egg-info/SOURCES.txt'
writing manifest file 'play_with_turtle.egg-info/SOURCES.txt'
running build_ext
Creating /home/ros2user/learningROS/ROS_WS1/install/play_with_turtle/lib/python3.10/site-packages/play-with-turtle.egg-link (link to .)
Installing draw_circle script to /home/ros2user/learningROS/ROS_WS1/install/play_with_turtle/lib/play_with_turtle
Installing go_turtle_and_avoid_walls script to /home/ros2user/learningROS/ROS_WS1/install/play_with_turtle/lib/play_with_turtle
Installing turtle_pose_subscriber script to /home/ros2user/learningROS/ROS_WS1/install/play_with_turtle/lib/play_with_turtle

Installed /home/ros2user/learningROS/ROS_WS1/build/play_with_turtle
running install_data
copying launch/draw_circle.launch.py -> /home/ros2user/learningROS/ROS_WS1/install/play_with_turtle/share/play_with_turtle/launch
