running develop
running egg_info
writing Robot1_controller.egg-info/PKG-INFO
writing dependency_links to Robot1_controller.egg-info/dependency_links.txt
writing entry points to Robot1_controller.egg-info/entry_points.txt
writing requirements to Robot1_controller.egg-info/requires.txt
writing top-level names to Robot1_controller.egg-info/top_level.txt
reading manifest file 'Robot1_controller.egg-info/SOURCES.txt'
writing manifest file 'Robot1_controller.egg-info/SOURCES.txt'
running build_ext
Creating /home/ros2user/learningROS/ROS_WS1/install/Robot1_controller/lib/python3.10/site-packages/Robot1-controller.egg-link (link to .)
Installing test_node1 script to /home/ros2user/learningROS/ROS_WS1/install/Robot1_controller/lib/Robot1_controller

Installed /home/ros2user/learningROS/ROS_WS1/build/Robot1_controller
running install_data
