-- Install configuration: ""
-- Execute custom install script
-- Up-to-date symlink: /home/ros2user/learningROS/ROS_WS1/install/play_with_turtle_interfaces/share/ament_index/resource_index/package_run_dependencies/play_with_turtle_interfaces
-- Up-to-date symlink: /home/ros2user/learningROS/ROS_WS1/install/play_with_turtle_interfaces/share/ament_index/resource_index/parent_prefix_path/play_with_turtle_interfaces
-- Up-to-date symlink: /home/ros2user/learningROS/ROS_WS1/install/play_with_turtle_interfaces/share/play_with_turtle_interfaces/environment/ament_prefix_path.sh
-- Up-to-date symlink: /home/ros2user/learningROS/ROS_WS1/install/play_with_turtle_interfaces/share/play_with_turtle_interfaces/environment/ament_prefix_path.dsv
-- Up-to-date symlink: /home/ros2user/learningROS/ROS_WS1/install/play_with_turtle_interfaces/share/play_with_turtle_interfaces/environment/path.sh
-- Up-to-date symlink: /home/ros2user/learningROS/ROS_WS1/install/play_with_turtle_interfaces/share/play_with_turtle_interfaces/environment/path.dsv
-- Up-to-date symlink: /home/ros2user/learningROS/ROS_WS1/install/play_with_turtle_interfaces/share/play_with_turtle_interfaces/local_setup.bash
-- Up-to-date symlink: /home/ros2user/learningROS/ROS_WS1/install/play_with_turtle_interfaces/share/play_with_turtle_interfaces/local_setup.sh
-- Up-to-date symlink: /home/ros2user/learningROS/ROS_WS1/install/play_with_turtle_interfaces/share/play_with_turtle_interfaces/local_setup.zsh
-- Up-to-date symlink: /home/ros2user/learningROS/ROS_WS1/install/play_with_turtle_interfaces/share/play_with_turtle_interfaces/local_setup.dsv
-- Symlinking: /home/ros2user/learningROS/ROS_WS1/install/play_with_turtle_interfaces/share/play_with_turtle_interfaces/package.dsv
-- Up-to-date symlink: /home/ros2user/learningROS/ROS_WS1/install/play_with_turtle_interfaces/share/ament_index/resource_index/packages/play_with_turtle_interfaces
-- Up-to-date symlink: /home/ros2user/learningROS/ROS_WS1/install/play_with_turtle_interfaces/share/play_with_turtle_interfaces/cmake/play_with_turtle_interfacesConfig.cmake
-- Up-to-date symlink: /home/ros2user/learningROS/ROS_WS1/install/play_with_turtle_interfaces/share/play_with_turtle_interfaces/cmake/play_with_turtle_interfacesConfig-version.cmake
-- Up-to-date symlink: /home/ros2user/learningROS/ROS_WS1/install/play_with_turtle_interfaces/share/play_with_turtle_interfaces/package.xml
