running develop
Removing /home/ros2user/learningROS/ROS_WS1/install/play_with_turtle/lib/python3.10/site-packages/play-with-turtle.egg-link (link to .)
running egg_info
writing ../../build/play_with_turtle/play_with_turtle.egg-info/PKG-INFO
writing dependency_links to ../../build/play_with_turtle/play_with_turtle.egg-info/dependency_links.txt
writing entry points to ../../build/play_with_turtle/play_with_turtle.egg-info/entry_points.txt
writing requirements to ../../build/play_with_turtle/play_with_turtle.egg-info/requires.txt
writing top-level names to ../../build/play_with_turtle/play_with_turtle.egg-info/top_level.txt
reading manifest file '../../build/play_with_turtle/play_with_turtle.egg-info/SOURCES.txt'
writing manifest file '../../build/play_with_turtle/play_with_turtle.egg-info/SOURCES.txt'
running build
running build_py
running install
running install_lib
creating /home/ros2user/learningROS/ROS_WS1/install/play_with_turtle/lib/python3.10/site-packages/play_with_turtle
copying /home/ros2user/learningROS/ROS_WS1/build/play_with_turtle/build/lib/play_with_turtle/turtle_pose_subscriber.py -> /home/ros2user/learningROS/ROS_WS1/install/play_with_turtle/lib/python3.10/site-packages/play_with_turtle
copying /home/ros2user/learningROS/ROS_WS1/build/play_with_turtle/build/lib/play_with_turtle/go_turtle_and_avoid_walls.py -> /home/ros2user/learningROS/ROS_WS1/install/play_with_turtle/lib/python3.10/site-packages/play_with_turtle
copying /home/ros2user/learningROS/ROS_WS1/build/play_with_turtle/build/lib/play_with_turtle/draw_circle.py -> /home/ros2user/learningROS/ROS_WS1/install/play_with_turtle/lib/python3.10/site-packages/play_with_turtle
copying /home/ros2user/learningROS/ROS_WS1/build/play_with_turtle/build/lib/play_with_turtle/__init__.py -> /home/ros2user/learningROS/ROS_WS1/install/play_with_turtle/lib/python3.10/site-packages/play_with_turtle
byte-compiling /home/ros2user/learningROS/ROS_WS1/install/play_with_turtle/lib/python3.10/site-packages/play_with_turtle/turtle_pose_subscriber.py to turtle_pose_subscriber.cpython-310.pyc
byte-compiling /home/ros2user/learningROS/ROS_WS1/install/play_with_turtle/lib/python3.10/site-packages/play_with_turtle/go_turtle_and_avoid_walls.py to go_turtle_and_avoid_walls.cpython-310.pyc
byte-compiling /home/ros2user/learningROS/ROS_WS1/install/play_with_turtle/lib/python3.10/site-packages/play_with_turtle/draw_circle.py to draw_circle.cpython-310.pyc
byte-compiling /home/ros2user/learningROS/ROS_WS1/install/play_with_turtle/lib/python3.10/site-packages/play_with_turtle/__init__.py to __init__.cpython-310.pyc
running install_data
copying launch/draw_circle.launch.py -> /home/ros2user/learningROS/ROS_WS1/install/play_with_turtle/share/play_with_turtle/launch
running install_egg_info
Copying ../../build/play_with_turtle/play_with_turtle.egg-info to /home/ros2user/learningROS/ROS_WS1/install/play_with_turtle/lib/python3.10/site-packages/play_with_turtle-0.0.0-py3.10.egg-info
running install_scripts
Installing draw_circle script to /home/ros2user/learningROS/ROS_WS1/install/play_with_turtle/lib/play_with_turtle
Installing go_turtle_and_avoid_walls script to /home/ros2user/learningROS/ROS_WS1/install/play_with_turtle/lib/play_with_turtle
Installing turtle_pose_subscriber script to /home/ros2user/learningROS/ROS_WS1/install/play_with_turtle/lib/play_with_turtle
writing list of installed files to '/home/ros2user/learningROS/ROS_WS1/build/play_with_turtle/install.log'
