[2.966s] Invoking command in '/home/ros2user/learningROS/ROS_WS1/src/play_with_turtle': PYTHONPATH=/home/ros2user/learningROS/ROS_WS1/build/play_with_turtle/prefix_override:/home/ros2user/learningROS/ROS_WS1/install/play_with_turtle/lib/python3.10/site-packages:${PYTHONPATH} /usr/bin/python3 setup.py egg_info --egg-base ../../build/play_with_turtle build --build-base /home/ros2user/learningROS/ROS_WS1/build/play_with_turtle/build install --record /home/ros2user/learningROS/ROS_WS1/build/play_with_turtle/install.log --single-version-externally-managed
[3.538s] running egg_info
[3.539s] creating ../../build/play_with_turtle/play_with_turtle.egg-info
[3.539s] writing ../../build/play_with_turtle/play_with_turtle.egg-info/PKG-INFO
[3.540s] writing dependency_links to ../../build/play_with_turtle/play_with_turtle.egg-info/dependency_links.txt
[3.540s] writing entry points to ../../build/play_with_turtle/play_with_turtle.egg-info/entry_points.txt
[3.540s] writing requirements to ../../build/play_with_turtle/play_with_turtle.egg-info/requires.txt
[3.540s] writing top-level names to ../../build/play_with_turtle/play_with_turtle.egg-info/top_level.txt
[3.540s] writing manifest file '../../build/play_with_turtle/play_with_turtle.egg-info/SOURCES.txt'
[3.542s] reading manifest file '../../build/play_with_turtle/play_with_turtle.egg-info/SOURCES.txt'
[3.543s] writing manifest file '../../build/play_with_turtle/play_with_turtle.egg-info/SOURCES.txt'
[3.543s] running build
[3.543s] running build_py
[3.543s] creating /home/ros2user/learningROS/ROS_WS1/build/play_with_turtle/build
[3.543s] creating /home/ros2user/learningROS/ROS_WS1/build/play_with_turtle/build/lib
[3.543s] creating /home/ros2user/learningROS/ROS_WS1/build/play_with_turtle/build/lib/play_with_turtle
[3.544s] copying play_with_turtle/turtle_pose_subscriber.py -> /home/ros2user/learningROS/ROS_WS1/build/play_with_turtle/build/lib/play_with_turtle
[3.544s] copying play_with_turtle/go_turtle_and_avoid_walls.py -> /home/ros2user/learningROS/ROS_WS1/build/play_with_turtle/build/lib/play_with_turtle
[3.544s] copying play_with_turtle/draw_circle.py -> /home/ros2user/learningROS/ROS_WS1/build/play_with_turtle/build/lib/play_with_turtle
[3.544s] copying play_with_turtle/__init__.py -> /home/ros2user/learningROS/ROS_WS1/build/play_with_turtle/build/lib/play_with_turtle
[3.544s] running install
[3.544s] running install_lib
[3.545s] creating /home/ros2user/learningROS/ROS_WS1/install/play_with_turtle/lib/python3.10/site-packages/play_with_turtle
[3.545s] copying /home/ros2user/learningROS/ROS_WS1/build/play_with_turtle/build/lib/play_with_turtle/turtle_pose_subscriber.py -> /home/ros2user/learningROS/ROS_WS1/install/play_with_turtle/lib/python3.10/site-packages/play_with_turtle
[3.545s] copying /home/ros2user/learningROS/ROS_WS1/build/play_with_turtle/build/lib/play_with_turtle/go_turtle_and_avoid_walls.py -> /home/ros2user/learningROS/ROS_WS1/install/play_with_turtle/lib/python3.10/site-packages/play_with_turtle
[3.545s] copying /home/ros2user/learningROS/ROS_WS1/build/play_with_turtle/build/lib/play_with_turtle/draw_circle.py -> /home/ros2user/learningROS/ROS_WS1/install/play_with_turtle/lib/python3.10/site-packages/play_with_turtle
[3.545s] copying /home/ros2user/learningROS/ROS_WS1/build/play_with_turtle/build/lib/play_with_turtle/__init__.py -> /home/ros2user/learningROS/ROS_WS1/install/play_with_turtle/lib/python3.10/site-packages/play_with_turtle
[3.548s] byte-compiling /home/ros2user/learningROS/ROS_WS1/install/play_with_turtle/lib/python3.10/site-packages/play_with_turtle/turtle_pose_subscriber.py to turtle_pose_subscriber.cpython-310.pyc
[3.548s] byte-compiling /home/ros2user/learningROS/ROS_WS1/install/play_with_turtle/lib/python3.10/site-packages/play_with_turtle/go_turtle_and_avoid_walls.py to go_turtle_and_avoid_walls.cpython-310.pyc
[3.549s] byte-compiling /home/ros2user/learningROS/ROS_WS1/install/play_with_turtle/lib/python3.10/site-packages/play_with_turtle/draw_circle.py to draw_circle.cpython-310.pyc
[3.549s] byte-compiling /home/ros2user/learningROS/ROS_WS1/install/play_with_turtle/lib/python3.10/site-packages/play_with_turtle/__init__.py to __init__.cpython-310.pyc
[3.550s] running install_data
[3.550s] creating /home/ros2user/learningROS/ROS_WS1/install/play_with_turtle/share/ament_index
[3.550s] creating /home/ros2user/learningROS/ROS_WS1/install/play_with_turtle/share/ament_index/resource_index
[3.550s] creating /home/ros2user/learningROS/ROS_WS1/install/play_with_turtle/share/ament_index/resource_index/packages
[3.550s] copying resource/play_with_turtle -> /home/ros2user/learningROS/ROS_WS1/install/play_with_turtle/share/ament_index/resource_index/packages
[3.551s] copying package.xml -> /home/ros2user/learningROS/ROS_WS1/install/play_with_turtle/share/play_with_turtle
[3.551s] creating /home/ros2user/learningROS/ROS_WS1/install/play_with_turtle/share/play_with_turtle/launch
[3.551s] copying launch/draw_circle.launch.py -> /home/ros2user/learningROS/ROS_WS1/install/play_with_turtle/share/play_with_turtle/launch
[3.551s] running install_egg_info
[3.555s] Copying ../../build/play_with_turtle/play_with_turtle.egg-info to /home/ros2user/learningROS/ROS_WS1/install/play_with_turtle/lib/python3.10/site-packages/play_with_turtle-0.0.0-py3.10.egg-info
[3.556s] running install_scripts
[3.592s] Installing draw_circle script to /home/ros2user/learningROS/ROS_WS1/install/play_with_turtle/lib/play_with_turtle
[3.592s] Installing go_turtle_and_avoid_walls script to /home/ros2user/learningROS/ROS_WS1/install/play_with_turtle/lib/play_with_turtle
[3.592s] Installing turtle_pose_subscriber script to /home/ros2user/learningROS/ROS_WS1/install/play_with_turtle/lib/play_with_turtle
[3.592s] writing list of installed files to '/home/ros2user/learningROS/ROS_WS1/build/play_with_turtle/install.log'
[3.622s] Invoked command in '/home/ros2user/learningROS/ROS_WS1/src/play_with_turtle' returned '0': PYTHONPATH=/home/ros2user/learningROS/ROS_WS1/build/play_with_turtle/prefix_override:/home/ros2user/learningROS/ROS_WS1/install/play_with_turtle/lib/python3.10/site-packages:${PYTHONPATH} /usr/bin/python3 setup.py egg_info --egg-base ../../build/play_with_turtle build --build-base /home/ros2user/learningROS/ROS_WS1/build/play_with_turtle/build install --record /home/ros2user/learningROS/ROS_WS1/build/play_with_turtle/install.log --single-version-externally-managed
